module gitlab.com/yellowhat-labs/solax-exporter

go 1.23.0

toolchain go1.24.1

require (
	github.com/getkin/kin-openapi v0.129.0
	github.com/prometheus/client_golang v1.21.1
	github.com/prometheus/client_model v0.6.1
)

require (
	github.com/beorn7/perks v1.0.1 // indirect
	github.com/cespare/xxhash/v2 v2.3.0 // indirect
	github.com/go-openapi/jsonpointer v0.21.0 // indirect
	github.com/go-openapi/swag v0.23.0 // indirect
	github.com/gorilla/mux v1.8.1 // indirect
	github.com/josharian/intern v1.0.0 // indirect
	github.com/klauspost/compress v1.18.0 // indirect
	github.com/mailru/easyjson v0.9.0 // indirect
	github.com/mohae/deepcopy v0.0.0-20170929034955-c48cc78d4826 // indirect
	github.com/munnerz/goautoneg v0.0.0-20191010083416-a7dc8b61c822 // indirect
	github.com/oasdiff/yaml v0.0.0-20250309154309-f31be36b4037 // indirect
	github.com/oasdiff/yaml3 v0.0.0-20250309153720-d2182401db90 // indirect
	github.com/perimeterx/marshmallow v1.1.5 // indirect
	github.com/prometheus/common v0.62.0 // indirect
	github.com/prometheus/procfs v0.15.1 // indirect
	golang.org/x/sys v0.31.0 // indirect
	google.golang.org/protobuf v1.36.5 // indirect
	gopkg.in/yaml.v3 v3.0.1 // indirect
)
